<?xml version="1.0" encoding="UTF-8"?>
<svg width="48px" height="48px" viewBox="0 0 48 48" version="1.1" xmlns="http://www.w3.org/2000/svg" xmlns:xlink="http://www.w3.org/1999/xlink">
    <!-- Generator: Sketch 63 (92445) - https://sketch.com -->
    <title>08 签到/打卡记蓝色</title>
    <desc>Created with Sketch.</desc>
    <g id="08-签到/打卡记蓝色" stroke="none" stroke-width="1" fill="none" fill-rule="evenodd">
        <g id="编组-3">
            <circle id="椭圆形" fill="#006AFE" cx="24" cy="24" r="24"></circle>
            <path d="M24,7.2 C25.3254834,7.2 26.4,8.2745166 26.4,9.6 L26.4,23.045 L32.9230198,29.5678495 C33.8602781,30.5051078 33.8602781,32.0247038 32.9230198,32.9619621 C31.9857615,33.8992204 30.4661655,33.8992204 29.5289072,32.9619621 L22.7406821,26.173737 C22.6383174,26.0713723 22.5471327,25.9620612 22.467128,25.8473212 C21.9376598,25.407199 21.6,24.7430318 21.6,24 L21.6,9.6 C21.6,8.2745166 22.6745166,7.2 24,7.2 Z" id="路径" fill="#FFFFFF"></path>
        </g>
    </g>
</svg>