<?xml version="1.0" encoding="UTF-8"?>
<svg width="48px" height="48px" viewBox="0 0 48 48" version="1.1" xmlns="http://www.w3.org/2000/svg" xmlns:xlink="http://www.w3.org/1999/xlink">
    <!-- Generator: Sketch 63 (92445) - https://sketch.com -->
    <title>08 签到/打卡</title>
    <desc>Created with Sketch.</desc>
    <g id="08-签到/打卡" stroke="none" stroke-width="1" fill="none" fill-rule="evenodd">
        <g id="编组-4" transform="translate(3.000000, 0.000000)" fill="#323E4A">
            <path d="M20.9915782,0.764456169 C22.2260801,0.771217221 23.221588,1.77723221 23.2151075,3.01173406 C23.2086269,4.2462359 22.2026119,5.24174386 20.9681101,5.23526332 C16.813137,5.21345171 12.8148995,6.82203535 9.81821154,9.81872335 C4.03779787,15.599137 3.7020851,24.8275545 8.94282346,30.9976334 L9.152,31.238 L20.8823529,43.006057 L32.605,31.245 L32.8500504,30.9643371 C35.1524549,28.2377528 36.4249762,24.8464197 36.5233688,21.3243441 L36.529503,20.9174009 C36.5322513,19.6828851 37.5352521,18.6843403 38.7697678,18.6870886 C40.0042836,18.689837 41.0028285,19.6928377 41.0000858,20.9273535 C40.9895433,25.6603244 39.3259784,30.2486101 36.223471,33.8985414 L35.9187435,34.2488046 L35.8324135,34.340434 L24.0486104,46.162158 C22.3600148,47.8561876 19.6507791,47.9133934 17.8932939,46.3306071 L17.7160955,46.162158 L5.93229241,34.340434 L5.8459624,34.2488046 C-1.21854933,26.3143696 -0.888088439,14.2026568 6.65702828,6.65754009 C10.5066336,2.80793476 15.6547678,0.736720998 20.9915782,0.764456169 Z" id="路径" fill-rule="nonzero"></path>
            <path d="M40.1180228,5.74276013 C40.9909595,6.61569679 40.9909595,8.03100674 40.1180228,8.90394339 L21.1509233,27.8710429 C20.2779866,28.7439796 18.8626767,28.7439796 17.98974,27.8710429 C17.9407817,27.8220846 17.8945691,27.7714202 17.8511024,27.7192412 L11.6699898,21.5375672 C10.7970532,20.6646306 10.7970532,19.2493206 11.6699898,18.376384 C12.5429265,17.5034473 13.9582364,17.5034473 14.8311731,18.376384 L19.5762873,23.1220576 L36.9568396,5.74276013 C37.8297762,4.86982348 39.2450862,4.86982348 40.1180228,5.74276013 Z" id="路径"></path>
        </g>
    </g>
</svg>